(footprint "SI4435" (version 20221018) (generator pcbnew)
  (layer "F.Cu")
  (attr through_hole)
  (fp_text reference "Q9" (at -2.7 -2.9 -180) (layer "F.SilkS")
      (effects (font (size 0.77216 0.77216) (thickness 0.061772)) (justify right top))
    (tstamp 95805860-e826-4c44-8971-e70c56817f5b)
  )
  (fp_text value "Si4435DDY-T1" (at -2.6 4.3 -180) (layer "F.Fab")
      (effects (font (size 1.2065 1.2065) (thickness 0.09652)) (justify right top))
    (tstamp a998dfc1-055b-4036-bad5-a9fcacaca744)
  )
  (fp_line (start -3.4 -2.7) (end 3.6 -2.7)
    (stroke (width 0.127) (type solid)) (layer "F.SilkS") (tstamp 115df0e4-282b-4ac6-9cad-6faf4b7a130e))
  (fp_line (start -3.4 2.7) (end -3.4 -2.7)
    (stroke (width 0.127) (type solid)) (layer "F.SilkS") (tstamp 40f39ff6-cc3d-420b-be54-c6b8df33cb5b))
  (fp_line (start 3.6 -2.7) (end 3.6 2.7)
    (stroke (width 0.127) (type solid)) (layer "F.SilkS") (tstamp 7107d382-216d-4816-b939-c065c40e9049))
  (fp_line (start 3.6 2.7) (end -3.4 2.7)
    (stroke (width 0.127) (type solid)) (layer "F.SilkS") (tstamp a4f14bc5-3554-43b5-ac09-bc8279850590))
  (fp_circle (center -3.9878 -1.9558) (end -3.6576 -1.9558)
    (stroke (width 0.127) (type solid)) (fill none) (layer "F.SilkS") (tstamp a5de64c7-81b9-4f27-962e-02f342052b1e))
  (pad "P$1" smd rect (at -2.66 -1.905) (size 1.98 0.568) (layers "F.Cu" "F.Paste" "F.Mask")
    (solder_mask_margin 0.0508) (tstamp a24f4ce7-02ca-4c66-a9f9-286ce82a7891))
  (pad "P$2" smd rect (at -2.66 -0.635) (size 1.98 0.69) (layers "F.Cu" "F.Paste" "F.Mask")
    (solder_mask_margin 0.0508) (tstamp f4efbb93-0ce0-4382-b197-07c7479d046a))
  (pad "P$3" smd rect (at -2.66 0.635) (size 1.98 0.69) (layers "F.Cu" "F.Paste" "F.Mask")
    (solder_mask_margin 0.0508) (tstamp 5370a1d2-df38-4683-9ab3-3c3a642a456f))
  (pad "P$4" smd rect (at -2.66 1.905) (size 1.98 0.69) (layers "F.Cu" "F.Paste" "F.Mask")
    (solder_mask_margin 0.0508) (tstamp eb282ff2-123b-450d-a0fd-befae826ba40))
  (pad "P$5" smd rect (at 2.52725 1.905) (size 1.1935 0.559) (layers "F.Cu" "F.Paste" "F.Mask")
    (solder_mask_margin 0.0508) (tstamp 7439bd0b-4107-4db1-a708-37ce25b99517))
  (pad "P$6" smd rect (at 2.52725 0.635) (size 1.1935 0.559) (layers "F.Cu" "F.Paste" "F.Mask")
    (solder_mask_margin 0.0508) (tstamp 4de46daa-dc80-425e-8943-e03953600b39))
  (pad "P$7" smd rect (at 2.52725 -0.635) (size 1.1935 0.559) (layers "F.Cu" "F.Paste" "F.Mask")
    (solder_mask_margin 0.0508) (tstamp 4864916d-0147-4a50-a726-6ec9fcc7e92f))
  (pad "P$8" smd rect (at 2.52725 -1.9305) (size 1.1935 0.559) (layers "F.Cu" "F.Paste" "F.Mask")
    (solder_mask_margin 0.0508) (tstamp 75103e0c-ca25-415a-a22b-bdfafaba66ef))
)
