EESchema Schematic File Version 4
EELAYER 30 0
EELAYER END
$Descr A4 11693 8268
encoding utf-8
Sheet 9 14
Title "LibreRouter - MegaBoard - 3v3 power"
Date "2020-07-13"
Rev "1.4"
Comp "LibreRouter"
Comment1 ""
Comment2 ""
Comment3 ""
Comment4 ""
$EndDescr
$Comp
L RT7272:RT7272 U2
U 1 1 5D42D1B4
P 5600 3500
AR Path="/5D0328DE/5D42CD47/5D42D1B4" Ref="U2"  Part="1" 
AR Path="/5D0328DE/5D42E225/5D42D1B4" Ref="U6"  Part="1" 
AR Path="/5D42D1B4" Ref="U?"  Part="1" 
F 0 "U2" H 5600 4015 50  0000 C CNN
F 1 "RT7272B" H 5600 3924 50  0000 C CNN
F 2 "LibreRouter_MegaBoard:RT8250-SOP8" H 5600 3500 50  0001 C CNN
F 3 "" H 5600 3500 50  0001 C CNN
F 4 "Richtek USA Inc." H 5600 3500 50  0001 C CNN "Manufacturer"
F 5 "RT7272BGSP" H 5600 3500 50  0001 C CNN "Manufacturer PN"
F 6 "DigiKey" H 5600 3500 50  0001 C CNN "Supplier"
F 7 "1028-1502-6-ND" H 5600 3500 50  0001 C CNN "Supplier PN"
	1    5600 3500
	1    0    0    -1  
$EndComp
$Comp
L Device:C C29
U 1 1 5D42D229
P 3350 3450
AR Path="/5D0328DE/5D42CD47/5D42D229" Ref="C29"  Part="1" 
AR Path="/5D0328DE/5D42E225/5D42D229" Ref="C15"  Part="1" 
F 0 "C29" H 3500 3450 50  0000 L CNN
F 1 "10uF, 35V" H 3400 3350 50  0000 L CNN
F 2 "LibreRouter_MegaBoard:C0805" H 3388 3300 50  0001 C CNN
F 3 "~" H 3350 3450 50  0001 C CNN
F 4 "DigiKey" H 3350 3450 50  0001 C CNN "Supplier"
F 5 "Murata Electronics" H 3350 3450 50  0001 C CNN "Manufacturer"
F 6 "GRM21BR6YA106ME43L" H 3350 3450 50  0001 C CNN "Manufacturer PN"
F 7 "490-10515-6-ND" H 3350 3450 50  0001 C CNN "Supplier PN"
	1    3350 3450
	1    0    0    -1  
$EndComp
$Comp
L Device:R R19
U 1 1 5D42D2DE
P 4400 3650
AR Path="/5D0328DE/5D42CD47/5D42D2DE" Ref="R19"  Part="1" 
AR Path="/5D0328DE/5D42E225/5D42D2DE" Ref="R58"  Part="1" 
F 0 "R19" H 4470 3696 50  0000 L CNN
F 1 "180k" H 4470 3605 50  0000 L CNN
F 2 "LibreRouter_MegaBoard:R0402" V 4330 3650 50  0001 C CNN
F 3 "~" H 4400 3650 50  0001 C CNN
F 4 "Panasonic Electronic Components" H 4400 3650 50  0001 C CNN "Manufacturer"
F 5 "ERJ-PA2F1803X" H 4400 3650 50  0001 C CNN "Manufacturer PN"
F 6 "DigiKey" H 4400 3650 50  0001 C CNN "Supplier"
F 7 "P124450DKR-ND" H 4400 3650 50  0001 C CNN "Supplier PN"
F 8 "0402WGF1803TCE" H 4400 3650 50  0001 C CNN "ZAlt Manufacturer PN"
	1    4400 3650
	1    0    0    -1  
$EndComp
$Comp
L Device:L_Core_Ferrite L2
U 1 1 5ED0A78A
P 7450 3350
AR Path="/5D0328DE/5D42CD47/5ED0A78A" Ref="L2"  Part="1" 
AR Path="/5D0328DE/5D42E225/5ED0A78A" Ref="L8"  Part="1" 
F 0 "L2" V 7675 3350 50  0000 C CNN
F 1 "4.7uH, SWPA6045S4R7MT" V 7600 3150 50  0000 C CNN
F 2 "LibreRouter_MegaBoard:SWPA6028S" H 7450 3350 50  0001 C CNN
F 3 "~" H 7450 3350 50  0001 C CNN
F 4 "Sunlord" H 7450 3350 50  0001 C CNN "Manufacturer"
F 5 "SWPA6045S4R7MT" H 7450 3350 50  0001 C CNN "Manufacturer PN"
F 6 "" H 7450 3350 50  0001 C CNN "Supplier"
F 7 "" H 7450 3350 50  0001 C CNN "Supplier PN"
F 8 "" H 7450 3350 50  0001 C CNN "ZAlt Manufacturer PN"
	1    7450 3350
	0    -1   -1   0   
$EndComp
$Comp
L Device:C C13
U 1 1 5ED0A78B
P 6400 3100
AR Path="/5D0328DE/5D42CD47/5ED0A78B" Ref="C13"  Part="1" 
AR Path="/5D0328DE/5D42E225/5ED0A78B" Ref="C12"  Part="1" 
F 0 "C13" V 6148 3100 50  0000 C CNN
F 1 "0.1uF, 10V" V 6239 3100 50  0000 C CNN
F 2 "LibreRouter_MegaBoard:C0402" H 6438 2950 50  0001 C CNN
F 3 "~" H 6400 3100 50  0001 C CNN
F 4 "Murata Electronics" H 6400 3100 50  0001 C CNN "Manufacturer"
F 5 "GCM155R71A104KA55D" H 6400 3100 50  0001 C CNN "Manufacturer PN"
F 6 "DigiKey" H 6400 3100 50  0001 C CNN "Supplier"
F 7 "490-16434-6-ND" H 6400 3100 50  0001 C CNN "Supplier PN"
F 8 "CL05B104KB54PNC/0402X104K500NT/CC0402KRX5R9BB104" H 6400 3100 50  0001 C CNN "ZAlt Manufacturer PN"
	1    6400 3100
	0    1    1    0   
$EndComp
$Comp
L Device:R R14
U 1 1 5ED0A78C
P 7900 3600
AR Path="/5D0328DE/5D42CD47/5ED0A78C" Ref="R14"  Part="1" 
AR Path="/5D0328DE/5D42E225/5ED0A78C" Ref="R9"  Part="1" 
F 0 "R14" H 7970 3646 50  0000 L CNN
F 1 "75K 1%" H 7970 3555 50  0000 L CNN
F 2 "LibreRouter_MegaBoard:R0402" V 7830 3600 50  0001 C CNN
F 3 "~" H 7900 3600 50  0001 C CNN
F 4 "Panasonic Electronic Components" H 7900 3600 50  0001 C CNN "Manufacturer"
F 5 "ERJ-2RKF7502X" H 7900 3600 50  0001 C CNN "Manufacturer PN"
F 6 "DigiKey" H 7900 3600 50  0001 C CNN "Supplier"
F 7 "P75.0KLDKR-ND" H 7900 3600 50  0001 C CNN "Supplier PN"
F 8 "0402WGF7502TCE" H 7900 3600 50  0001 C CNN "ZAlt Manufacturer PN"
	1    7900 3600
	1    0    0    -1  
$EndComp
$Comp
L Device:R R15
U 1 1 5D42D5CB
P 7900 4000
AR Path="/5D0328DE/5D42CD47/5D42D5CB" Ref="R15"  Part="1" 
AR Path="/5D0328DE/5D42E225/5D42D5CB" Ref="R11"  Part="1" 
F 0 "R15" H 7970 4046 50  0000 L CNN
F 1 "24k 1%" H 7970 3955 50  0000 L CNN
F 2 "LibreRouter_MegaBoard:R0402" V 7830 4000 50  0001 C CNN
F 3 "~" H 7900 4000 50  0001 C CNN
F 4 "Panasonic Electronic Components" H 7900 4000 50  0001 C CNN "Manufacturer"
F 5 "ERJ-2RKF2402X" H 7900 4000 50  0001 C CNN "Manufacturer PN"
F 6 "DigiKey" H 7900 4000 50  0001 C CNN "Supplier"
F 7 "P24.0KLDKR-ND" H 7900 4000 50  0001 C CNN "Supplier PN"
F 8 "0402WGF2402TCE" H 7900 4000 50  0001 C CNN "ZAlt Manufacturer PN"
	1    7900 4000
	1    0    0    -1  
$EndComp
$Comp
L Device:R R37
U 1 1 5D42D605
P 6350 4350
AR Path="/5D0328DE/5D42CD47/5D42D605" Ref="R37"  Part="1" 
AR Path="/5D0328DE/5D42E225/5D42D605" Ref="R59"  Part="1" 
F 0 "R37" H 6420 4396 50  0000 L CNN
F 1 "47k 1%" H 6420 4305 50  0000 L CNN
F 2 "LibreRouter_MegaBoard:R0402" V 6280 4350 50  0001 C CNN
F 3 "~" H 6350 4350 50  0001 C CNN
F 4 "Panasonic Electronic Components" H 6350 4350 50  0001 C CNN "Manufacturer"
F 5 "ERJ-2RKF4702X" H 6350 4350 50  0001 C CNN "Manufacturer PN"
F 6 "DigiKey" H 6350 4350 50  0001 C CNN "Supplier"
F 7 "P47.0KLDKR-ND" H 6350 4350 50  0001 C CNN "Supplier PN"
F 8 "0402WGF4702TCE" H 6350 4350 50  0001 C CNN "ZAlt Manufacturer PN"
	1    6350 4350
	1    0    0    -1  
$EndComp
$Comp
L Device:C C32
U 1 1 5D42D659
P 6350 3950
AR Path="/5D0328DE/5D42CD47/5D42D659" Ref="C32"  Part="1" 
AR Path="/5D0328DE/5D42E225/5D42D659" Ref="C16"  Part="1" 
F 0 "C32" H 6235 3904 50  0000 R CNN
F 1 "2.7nF" H 6235 3995 50  0000 R CNN
F 2 "LibreRouter_MegaBoard:C0402" H 6388 3800 50  0001 C CNN
F 3 "~" H 6350 3950 50  0001 C CNN
F 4 "DigiKey" H 6350 3950 50  0001 C CNN "Supplier"
F 5 "GRM1557U1A272JA01D" H 6350 3950 50  0001 C CNN "Manufacturer PN"
F 6 "490-6275-6-ND" H 6350 3950 50  0001 C CNN "Supplier PN"
F 7 "Murata Electronics" H 6350 3950 50  0001 C CNN "Manufacturer"
F 8 "CL05B272KB5NNNC/0402B272K500NT" H 6350 3950 50  0001 C CNN "ZAlt Manufacturer PN"
	1    6350 3950
	-1   0    0    1   
$EndComp
Wire Wire Line
	6100 3550 7050 3550
Wire Wire Line
	7050 3550 7050 3800
Wire Wire Line
	7050 3800 7900 3800
Wire Wire Line
	7900 3800 7900 3850
Wire Wire Line
	7900 3750 7900 3800
Connection ~ 7900 3800
Wire Wire Line
	7600 3350 7900 3350
Wire Wire Line
	7900 3350 7900 3450
Wire Wire Line
	6100 3350 6900 3350
Wire Wire Line
	6100 3250 6200 3250
Wire Wire Line
	6200 3250 6200 3100
Wire Wire Line
	6200 3100 6250 3100
Wire Wire Line
	6550 3100 6900 3100
Wire Wire Line
	6900 3100 6900 3350
Connection ~ 6900 3350
Wire Wire Line
	6900 3350 7300 3350
Wire Wire Line
	7900 3350 8550 3350
Connection ~ 7900 3350
$Comp
L Device:C C38
U 1 1 5D42DAC0
P 8550 3800
AR Path="/5D0328DE/5D42CD47/5D42DAC0" Ref="C38"  Part="1" 
AR Path="/5D0328DE/5D42E225/5D42DAC0" Ref="C17"  Part="1" 
F 0 "C38" H 8400 3800 50  0000 R CNN
F 1 "22uF, 10V" H 8500 3900 50  0000 R CNN
F 2 "LibreRouter_MegaBoard:C0805" H 8588 3650 50  0001 C CNN
F 3 "~" H 8550 3800 50  0001 C CNN
F 4 "DigiKey" H 8550 3800 50  0001 C CNN "Supplier"
F 5 "GRM21BR61A226ME51L" H 8550 3800 50  0001 C CNN "Manufacturer PN"
F 6 "490-10511-6-ND" H 8550 3800 50  0001 C CNN "Supplier PN"
F 7 "Murata Electronics" H 8550 3800 50  0001 C CNN "Manufacturer"
F 8 "CL21A226MPQNNNE/0805X226M100NT" H 8550 3800 50  0001 C CNN "ZAlt Manufacturer PN"
	1    8550 3800
	-1   0    0    1   
$EndComp
$Comp
L Device:C C28
U 1 1 5ED0A791
P 9200 3800
AR Path="/5D0328DE/5D42CD47/5ED0A791" Ref="C28"  Part="1" 
AR Path="/5D0328DE/5D42E225/5ED0A791" Ref="C14"  Part="1" 
F 0 "C28" H 9050 3800 50  0000 R CNN
F 1 "22uF, 10V" H 9150 3900 50  0000 R CNN
F 2 "LibreRouter_MegaBoard:C0805" H 9238 3650 50  0001 C CNN
F 3 "~" H 9200 3800 50  0001 C CNN
F 4 "DigiKey" H 9200 3800 50  0001 C CNN "Supplier"
F 5 "GRM21BR61A226ME51L" H 9200 3800 50  0001 C CNN "Manufacturer PN"
F 6 "490-10511-6-ND" H 9200 3800 50  0001 C CNN "Supplier PN"
F 7 "Murata Electronics" H 9200 3800 50  0001 C CNN "Manufacturer"
F 8 "CL21A226MPQNNNE/0805X226M100NT" H 9200 3800 50  0001 C CNN "ZAlt Manufacturer PN"
	1    9200 3800
	-1   0    0    1   
$EndComp
$Comp
L Device:C C71
U 1 1 5ED0A792
P 9850 3800
AR Path="/5D0328DE/5D42CD47/5ED0A792" Ref="C71"  Part="1" 
AR Path="/5D0328DE/5D42E225/5ED0A792" Ref="C91"  Part="1" 
F 0 "C71" H 9700 3800 50  0000 R CNN
F 1 "0.1uF, 10V" H 9800 3900 50  0000 R CNN
F 2 "LibreRouter_MegaBoard:C0402" H 9888 3650 50  0001 C CNN
F 3 "~" H 9850 3800 50  0001 C CNN
F 4 "Murata Electronics" H 9850 3800 50  0001 C CNN "Manufacturer"
F 5 "GCM155R71A104KA55D" H 9850 3800 50  0001 C CNN "Manufacturer PN"
F 6 "DigiKey" H 9850 3800 50  0001 C CNN "Supplier"
F 7 "490-16434-6-ND" H 9850 3800 50  0001 C CNN "Supplier PN"
F 8 "CL05B104KB54PNC/0402X104K500NT/CC0402KRX5R9BB104" H 9850 3800 50  0001 C CNN "ZAlt Manufacturer PN"
	1    9850 3800
	-1   0    0    1   
$EndComp
$Comp
L Device:C C72
U 1 1 5D42DCB2
P 10550 3800
AR Path="/5D0328DE/5D42CD47/5D42DCB2" Ref="C72"  Part="1" 
AR Path="/5D0328DE/5D42E225/5D42DCB2" Ref="C92"  Part="1" 
F 0 "C72" H 10400 3800 50  0000 R CNN
F 1 "0.1uF, 10V" H 10500 3900 50  0000 R CNN
F 2 "LibreRouter_MegaBoard:C0402" H 10588 3650 50  0001 C CNN
F 3 "~" H 10550 3800 50  0001 C CNN
F 4 "Murata Electronics" H 10550 3800 50  0001 C CNN "Manufacturer"
F 5 "GCM155R71A104KA55D" H 10550 3800 50  0001 C CNN "Manufacturer PN"
F 6 "DigiKey" H 10550 3800 50  0001 C CNN "Supplier"
F 7 "490-16434-6-ND" H 10550 3800 50  0001 C CNN "Supplier PN"
F 8 "CL05B104KB54PNC/0402X104K500NT/CC0402KRX5R9BB104" H 10550 3800 50  0001 C CNN "ZAlt Manufacturer PN"
	1    10550 3800
	-1   0    0    1   
$EndComp
$Comp
L power:GND #PWR0139
U 1 1 5ED0A793
P 7900 4250
AR Path="/5D0328DE/5D42CD47/5ED0A793" Ref="#PWR0139"  Part="1" 
AR Path="/5D0328DE/5D42E225/5ED0A793" Ref="#PWR0145"  Part="1" 
F 0 "#PWR0139" H 7900 4000 50  0001 C CNN
F 1 "GND" H 7905 4077 50  0000 C CNN
F 2 "" H 7900 4250 50  0001 C CNN
F 3 "" H 7900 4250 50  0001 C CNN
	1    7900 4250
	1    0    0    -1  
$EndComp
$Comp
L power:GND #PWR0140
U 1 1 5ED0A794
P 9550 4250
AR Path="/5D0328DE/5D42CD47/5ED0A794" Ref="#PWR0140"  Part="1" 
AR Path="/5D0328DE/5D42E225/5ED0A794" Ref="#PWR0146"  Part="1" 
F 0 "#PWR0140" H 9550 4000 50  0001 C CNN
F 1 "GND" H 9555 4077 50  0000 C CNN
F 2 "" H 9550 4250 50  0001 C CNN
F 3 "" H 9550 4250 50  0001 C CNN
	1    9550 4250
	1    0    0    -1  
$EndComp
Connection ~ 8550 3350
Wire Wire Line
	8550 3350 9200 3350
Wire Wire Line
	9200 3650 9200 3350
Connection ~ 9200 3350
Wire Wire Line
	10550 3350 10550 3650
Wire Wire Line
	9200 3350 9850 3350
Wire Wire Line
	9850 3650 9850 3350
Connection ~ 9850 3350
Wire Wire Line
	9850 3350 10550 3350
Wire Wire Line
	8550 3350 8550 3650
Wire Wire Line
	8550 3950 8550 4150
Wire Wire Line
	8550 4150 9200 4150
Wire Wire Line
	10550 4150 10550 3950
Wire Wire Line
	9850 3950 9850 4150
Connection ~ 9850 4150
Wire Wire Line
	9850 4150 10550 4150
Wire Wire Line
	9200 3950 9200 4150
Connection ~ 9200 4150
Wire Wire Line
	9200 4150 9550 4150
Wire Wire Line
	9550 4150 9550 4250
Connection ~ 9550 4150
Wire Wire Line
	9550 4150 9850 4150
Wire Wire Line
	7900 4250 7900 4150
Wire Wire Line
	10550 3350 10650 3350
Connection ~ 10550 3350
Wire Wire Line
	6100 3750 6350 3750
Wire Wire Line
	6350 3750 6350 3800
Wire Wire Line
	6350 4100 6350 4200
$Comp
L power:GND #PWR0141
U 1 1 5D42FF27
P 6350 4600
AR Path="/5D0328DE/5D42CD47/5D42FF27" Ref="#PWR0141"  Part="1" 
AR Path="/5D0328DE/5D42E225/5D42FF27" Ref="#PWR0147"  Part="1" 
F 0 "#PWR0141" H 6350 4350 50  0001 C CNN
F 1 "GND" H 6355 4427 50  0000 C CNN
F 2 "" H 6350 4600 50  0001 C CNN
F 3 "" H 6350 4600 50  0001 C CNN
	1    6350 4600
	1    0    0    -1  
$EndComp
Wire Wire Line
	6350 4500 6350 4600
$Comp
L Device:C C36
U 1 1 5D43058C
P 2700 3450
AR Path="/5D0328DE/5D42CD47/5D43058C" Ref="C36"  Part="1" 
AR Path="/5D0328DE/5D42E225/5D43058C" Ref="C19"  Part="1" 
F 0 "C36" H 2850 3450 50  0000 L CNN
F 1 "10uF, 35V" H 2750 3350 50  0000 L CNN
F 2 "LibreRouter_MegaBoard:C0805" H 2738 3300 50  0001 C CNN
F 3 "~" H 2700 3450 50  0001 C CNN
F 4 "DigiKey" H 2700 3450 50  0001 C CNN "Supplier"
F 5 "Murata Electronics" H 2700 3450 50  0001 C CNN "Manufacturer"
F 6 "GRM21BR6YA106ME43L" H 2700 3450 50  0001 C CNN "Manufacturer PN"
F 7 "490-10515-6-ND" H 2700 3450 50  0001 C CNN "Supplier PN"
	1    2700 3450
	1    0    0    -1  
$EndComp
Text HLabel 4400 3350 0    50   Input ~ 0
ENABLE
Text HLabel 2200 3250 0    50   BiDi ~ 0
VCC
Text HLabel 10650 3350 2    50   BiDi ~ 0
3.3V
Wire Wire Line
	5100 3250 3350 3250
Wire Wire Line
	2700 3300 2700 3250
Connection ~ 2700 3250
Wire Wire Line
	2700 3250 2200 3250
Wire Wire Line
	3350 3300 3350 3250
Connection ~ 3350 3250
Wire Wire Line
	3350 3250 2700 3250
Wire Wire Line
	2700 3600 2700 3750
Wire Wire Line
	2700 3750 3000 3750
Wire Wire Line
	3350 3750 3350 3600
$Comp
L power:GND #PWR0142
U 1 1 5D4322E2
P 3000 3750
AR Path="/5D0328DE/5D42CD47/5D4322E2" Ref="#PWR0142"  Part="1" 
AR Path="/5D0328DE/5D42E225/5D4322E2" Ref="#PWR0148"  Part="1" 
F 0 "#PWR0142" H 3000 3500 50  0001 C CNN
F 1 "GND" H 3005 3577 50  0000 C CNN
F 2 "" H 3000 3750 50  0001 C CNN
F 3 "" H 3000 3750 50  0001 C CNN
	1    3000 3750
	1    0    0    -1  
$EndComp
Connection ~ 3000 3750
Wire Wire Line
	3000 3750 3350 3750
$Comp
L power:GND #PWR0143
U 1 1 5D4323C5
P 4400 4000
AR Path="/5D0328DE/5D42CD47/5D4323C5" Ref="#PWR0143"  Part="1" 
AR Path="/5D0328DE/5D42E225/5D4323C5" Ref="#PWR0149"  Part="1" 
F 0 "#PWR0143" H 4400 3750 50  0001 C CNN
F 1 "GND" H 4405 3827 50  0000 C CNN
F 2 "" H 4400 4000 50  0001 C CNN
F 3 "" H 4400 4000 50  0001 C CNN
	1    4400 4000
	1    0    0    -1  
$EndComp
$Comp
L power:GND #PWR0144
U 1 1 5ED0A799
P 4900 4000
AR Path="/5D0328DE/5D42CD47/5ED0A799" Ref="#PWR0144"  Part="1" 
AR Path="/5D0328DE/5D42E225/5ED0A799" Ref="#PWR0150"  Part="1" 
F 0 "#PWR0144" H 4900 3750 50  0001 C CNN
F 1 "GND" H 4905 3827 50  0000 C CNN
F 2 "" H 4900 4000 50  0001 C CNN
F 3 "" H 4900 4000 50  0001 C CNN
	1    4900 4000
	1    0    0    -1  
$EndComp
Wire Wire Line
	5100 3650 4900 3650
Wire Wire Line
	4900 3650 4900 3750
Wire Wire Line
	5100 3750 4900 3750
Connection ~ 4900 3750
Wire Wire Line
	4900 3750 4900 4000
Wire Wire Line
	5100 3450 4400 3450
Wire Wire Line
	4400 3450 4400 3500
Wire Wire Line
	4400 3800 4400 4000
Wire Wire Line
	4400 3350 5100 3350
$EndSCHEMATC
