EESchema Schematic File Version 4
EELAYER 30 0
EELAYER END
$Descr A4 11693 8268
encoding utf-8
Sheet 6 14
Title "LibreRouter - MegaBoard - 5v power source"
Date "2020-07-13"
Rev "1.4"
Comp "LibreRouter"
Comment1 ""
Comment2 ""
Comment3 ""
Comment4 ""
$EndDescr
$Comp
L RT7272:RT7272 U3
U 1 1 5ED0A787
P 5050 3600
AR Path="/5D0328DE/5D4FC17D/5ED0A787" Ref="U3"  Part="1" 
AR Path="/5D0328DE/5D4FE12B/5ED0A787" Ref="U4"  Part="1" 
AR Path="/5D0328DE/5D4FEB2F/5ED0A787" Ref="U5"  Part="1" 
AR Path="/5ED0A787" Ref="U?"  Part="1" 
F 0 "U5" H 5050 4115 50  0000 C CNN
F 1 "RT7272B" H 5050 4024 50  0000 C CNN
F 2 "LibreRouter_MegaBoard:RT8250-SOP8" H 5050 3600 50  0001 C CNN
F 3 "" H 5050 3600 50  0001 C CNN
F 4 "Richtek USA Inc." H 5050 3600 50  0001 C CNN "Manufacturer"
F 5 "RT7272BGSP" H 5050 3600 50  0001 C CNN "Manufacturer PN"
F 6 "DigiKey" H 5050 3600 50  0001 C CNN "Supplier"
F 7 "1028-1502-6-ND" H 5050 3600 50  0001 C CNN "Supplier PN"
	1    5050 3600
	1    0    0    -1  
$EndComp
$Comp
L Device:C C26
U 1 1 5ED0A788
P 2800 3550
AR Path="/5D0328DE/5D4FC17D/5ED0A788" Ref="C26"  Part="1" 
AR Path="/5D0328DE/5D4FE12B/5ED0A788" Ref="C53"  Part="1" 
AR Path="/5D0328DE/5D4FEB2F/5ED0A788" Ref="C68"  Part="1" 
F 0 "C68" H 2950 3550 50  0000 L CNN
F 1 "10uF, 35V" H 2850 3450 50  0000 L CNN
F 2 "LibreRouter_MegaBoard:C0805" H 2838 3400 50  0001 C CNN
F 3 "~" H 2800 3550 50  0001 C CNN
F 4 "DigiKey" H 2800 3550 50  0001 C CNN "Supplier"
F 5 "Murata Electronics" H 2800 3550 50  0001 C CNN "Manufacturer"
F 6 "GRM21BR6YA106ME43L" H 2800 3550 50  0001 C CNN "Manufacturer PN"
F 7 "490-10515-6-ND" H 2800 3550 50  0001 C CNN "Supplier PN"
	1    2800 3550
	1    0    0    -1  
$EndComp
$Comp
L Device:R R36
U 1 1 5ED0A789
P 3850 3750
AR Path="/5D0328DE/5D4FC17D/5ED0A789" Ref="R36"  Part="1" 
AR Path="/5D0328DE/5D4FE12B/5ED0A789" Ref="R13"  Part="1" 
AR Path="/5D0328DE/5D4FEB2F/5ED0A789" Ref="R52"  Part="1" 
F 0 "R52" H 3920 3796 50  0000 L CNN
F 1 "180k" H 3920 3705 50  0000 L CNN
F 2 "LibreRouter_MegaBoard:R0402" V 3780 3750 50  0001 C CNN
F 3 "~" H 3850 3750 50  0001 C CNN
F 4 "Panasonic Electronic Components" H 3850 3750 50  0001 C CNN "Manufacturer"
F 5 "ERJ-PA2F1803X" H 3850 3750 50  0001 C CNN "Manufacturer PN"
F 6 "DigiKey" H 3850 3750 50  0001 C CNN "Supplier"
F 7 "P124450DKR-ND" H 3850 3750 50  0001 C CNN "Supplier PN"
F 8 "0402WGF1803TCE" H 3850 3750 50  0001 C CNN "ZAlt Manufacturer PN"
	1    3850 3750
	1    0    0    -1  
$EndComp
$Comp
L Device:L_Core_Ferrite L5
U 1 1 5D42D3B9
P 6900 3450
AR Path="/5D0328DE/5D4FC17D/5D42D3B9" Ref="L5"  Part="1" 
AR Path="/5D0328DE/5D4FE12B/5D42D3B9" Ref="L3"  Part="1" 
AR Path="/5D0328DE/5D4FEB2F/5D42D3B9" Ref="L4"  Part="1" 
F 0 "L4" V 7125 3450 50  0000 C CNN
F 1 "6.8uH, SWPA6045S6R8MT" V 7050 3250 50  0000 C CNN
F 2 "LibreRouter_MegaBoard:SWPA6028S" H 6900 3450 50  0001 C CNN
F 3 "~" H 6900 3450 50  0001 C CNN
F 4 "Abracon LLC" H 6900 3450 50  0001 C CNN "Manufacturer"
F 5 "SWPA6045S6R8MT" H 6900 3450 50  0001 C CNN "Manufacturer PN"
F 6 "DigiKey" H 6900 3450 50  0001 C CNN "Supplier"
F 7 "535-13046-6-ND" H 6900 3450 50  0001 C CNN "Supplier PN"
F 8 "" H 6900 3450 50  0001 C CNN "ZAlt Manufacturer PN"
	1    6900 3450
	0    -1   -1   0   
$EndComp
$Comp
L Device:C C21
U 1 1 5D42D488
P 5850 3200
AR Path="/5D0328DE/5D4FC17D/5D42D488" Ref="C21"  Part="1" 
AR Path="/5D0328DE/5D4FE12B/5D42D488" Ref="C30"  Part="1" 
AR Path="/5D0328DE/5D4FEB2F/5D42D488" Ref="C62"  Part="1" 
F 0 "C62" V 5598 3200 50  0000 C CNN
F 1 "0.1uF, 10V" V 5689 3200 50  0000 C CNN
F 2 "LibreRouter_MegaBoard:C0402" H 5888 3050 50  0001 C CNN
F 3 "~" H 5850 3200 50  0001 C CNN
F 4 "Murata Electronics" H 5850 3200 50  0001 C CNN "Manufacturer"
F 5 "GCM155R71A104KA55D" H 5850 3200 50  0001 C CNN "Manufacturer PN"
F 6 "DigiKey" H 5850 3200 50  0001 C CNN "Supplier"
F 7 "490-16434-6-ND" H 5850 3200 50  0001 C CNN "Supplier PN"
F 8 "CL05B104KB54PNC/0402X104K500NT/CC0402KRX5R9BB104" H 5850 3200 50  0001 C CNN "ZAlt Manufacturer PN"
	1    5850 3200
	0    1    1    0   
$EndComp
$Comp
L Device:R R34
U 1 1 5D42D571
P 7350 3700
AR Path="/5D0328DE/5D4FC17D/5D42D571" Ref="R34"  Part="1" 
AR Path="/5D0328DE/5D4FE12B/5D42D571" Ref="R10"  Part="1" 
AR Path="/5D0328DE/5D4FEB2F/5D42D571" Ref="R45"  Part="1" 
F 0 "R45" H 7420 3746 50  0000 L CNN
F 1 "53.6K 1%" H 7420 3655 50  0000 L CNN
F 2 "LibreRouter_MegaBoard:R0402" V 7280 3700 50  0001 C CNN
F 3 "~" H 7350 3700 50  0001 C CNN
F 4 "Panasonic Electronic Components" H 7350 3700 50  0001 C CNN "Manufacturer"
F 5 "ERJ-2RKF5362X" H 7350 3700 50  0001 C CNN "Manufacturer PN"
F 6 "DigiKey" H 7350 3700 50  0001 C CNN "Supplier"
F 7 "P53.6KLDKR-ND" H 7350 3700 50  0001 C CNN "Supplier PN"
F 8 "0402WGF5362TCE" H 7350 3700 50  0001 C CNN "ZAlt Manufacturer PN"
	1    7350 3700
	1    0    0    -1  
$EndComp
$Comp
L Device:R R35
U 1 1 5ED0A78D
P 7350 4100
AR Path="/5D0328DE/5D4FC17D/5ED0A78D" Ref="R35"  Part="1" 
AR Path="/5D0328DE/5D4FE12B/5ED0A78D" Ref="R12"  Part="1" 
AR Path="/5D0328DE/5D4FEB2F/5ED0A78D" Ref="R47"  Part="1" 
F 0 "R47" H 7420 4146 50  0000 L CNN
F 1 "10k 1%" H 7420 4055 50  0000 L CNN
F 2 "LibreRouter_MegaBoard:R0402" V 7280 4100 50  0001 C CNN
F 3 "~" H 7350 4100 50  0001 C CNN
F 4 "Panasonic Electronic Components" H 7350 4100 50  0001 C CNN "Manufacturer"
F 5 "ERJ-PA2F1002X" H 7350 4100 50  0001 C CNN "Manufacturer PN"
F 6 "DigiKey" H 7350 4100 50  0001 C CNN "Supplier"
F 7 "P17230DKR-ND" H 7350 4100 50  0001 C CNN "Supplier PN"
F 8 "0402WGF1002TCE" H 7350 4100 50  0001 C CNN "ZAlt Manufacturer PN"
	1    7350 4100
	1    0    0    -1  
$EndComp
$Comp
L Device:R R38
U 1 1 5ED0A78E
P 5800 4450
AR Path="/5D0328DE/5D4FC17D/5ED0A78E" Ref="R38"  Part="1" 
AR Path="/5D0328DE/5D4FE12B/5ED0A78E" Ref="R16"  Part="1" 
AR Path="/5D0328DE/5D4FEB2F/5ED0A78E" Ref="R54"  Part="1" 
F 0 "R54" H 5870 4496 50  0000 L CNN
F 1 "24k" H 5870 4405 50  0000 L CNN
F 2 "LibreRouter_MegaBoard:R0402" V 5730 4450 50  0001 C CNN
F 3 "~" H 5800 4450 50  0001 C CNN
F 4 "Panasonic Electronic Components" H 5800 4450 50  0001 C CNN "Manufacturer"
F 5 "ERJ-PA2F2402X" H 5800 4450 50  0001 C CNN "Manufacturer PN"
F 6 "DigiKey" H 5800 4450 50  0001 C CNN "Supplier"
F 7 "P124459DKR-ND" H 5800 4450 50  0001 C CNN "Supplier PN"
F 8 "0402WGF2402TCE" H 5800 4450 50  0001 C CNN "ZAlt Manufacturer PN"
	1    5800 4450
	1    0    0    -1  
$EndComp
$Comp
L Device:C C24
U 1 1 5ED0A78F
P 5800 4050
AR Path="/5D0328DE/5D4FC17D/5ED0A78F" Ref="C24"  Part="1" 
AR Path="/5D0328DE/5D4FE12B/5ED0A78F" Ref="C45"  Part="1" 
AR Path="/5D0328DE/5D4FEB2F/5ED0A78F" Ref="C66"  Part="1" 
F 0 "C66" H 5685 4004 50  0000 R CNN
F 1 "2.7nF" H 5685 4095 50  0000 R CNN
F 2 "LibreRouter_MegaBoard:C0402" H 5838 3900 50  0001 C CNN
F 3 "~" H 5800 4050 50  0001 C CNN
F 4 "DigiKey" H 5800 4050 50  0001 C CNN "Supplier"
F 5 "GRM1557U1A272JA01D" H 5800 4050 50  0001 C CNN "Manufacturer PN"
F 6 "490-6275-6-ND" H 5800 4050 50  0001 C CNN "Supplier PN"
F 7 "Murata Electronics" H 5800 4050 50  0001 C CNN "Manufacturer"
F 8 "CL05B272KB5NNNC/0402B272K500NT" H 5800 4050 50  0001 C CNN "ZAlt Manufacturer PN"
	1    5800 4050
	-1   0    0    1   
$EndComp
Wire Wire Line
	5550 3650 6500 3650
Wire Wire Line
	6500 3650 6500 3900
Wire Wire Line
	6500 3900 7350 3900
Wire Wire Line
	7350 3900 7350 3950
Wire Wire Line
	7350 3850 7350 3900
Connection ~ 7350 3900
Wire Wire Line
	7050 3450 7350 3450
Wire Wire Line
	7350 3450 7350 3550
Wire Wire Line
	5550 3450 6350 3450
Wire Wire Line
	5550 3350 5650 3350
Wire Wire Line
	5650 3350 5650 3200
Wire Wire Line
	5650 3200 5700 3200
Wire Wire Line
	6000 3200 6350 3200
Wire Wire Line
	6350 3200 6350 3450
Connection ~ 6350 3450
Wire Wire Line
	6350 3450 6750 3450
Wire Wire Line
	7350 3450 8000 3450
Connection ~ 7350 3450
$Comp
L Device:C C25
U 1 1 5ED0A790
P 8000 3900
AR Path="/5D0328DE/5D4FC17D/5ED0A790" Ref="C25"  Part="1" 
AR Path="/5D0328DE/5D4FE12B/5ED0A790" Ref="C46"  Part="1" 
AR Path="/5D0328DE/5D4FEB2F/5ED0A790" Ref="C67"  Part="1" 
F 0 "C67" H 7850 3900 50  0000 R CNN
F 1 "22uF, 10V" H 7950 4000 50  0000 R CNN
F 2 "LibreRouter_MegaBoard:C0805" H 8038 3750 50  0001 C CNN
F 3 "~" H 8000 3900 50  0001 C CNN
F 4 "DigiKey" H 8000 3900 50  0001 C CNN "Supplier"
F 5 "GRM21BR61A226ME51L" H 8000 3900 50  0001 C CNN "Manufacturer PN"
F 6 "490-10511-6-ND" H 8000 3900 50  0001 C CNN "Supplier PN"
F 7 "Murata Electronics" H 8000 3900 50  0001 C CNN "Manufacturer"
F 8 "CL21A226MPQNNNE/0805X226M100NT" H 8000 3900 50  0001 C CNN "ZAlt Manufacturer PN"
	1    8000 3900
	-1   0    0    1   
$EndComp
$Comp
L Device:C C22
U 1 1 5D42DBCD
P 8650 3900
AR Path="/5D0328DE/5D4FC17D/5D42DBCD" Ref="C22"  Part="1" 
AR Path="/5D0328DE/5D4FE12B/5D42DBCD" Ref="C31"  Part="1" 
AR Path="/5D0328DE/5D4FEB2F/5D42DBCD" Ref="C64"  Part="1" 
F 0 "C64" H 8500 3900 50  0000 R CNN
F 1 "22uF, 10V" H 8600 4000 50  0000 R CNN
F 2 "LibreRouter_MegaBoard:C0805" H 8688 3750 50  0001 C CNN
F 3 "~" H 8650 3900 50  0001 C CNN
F 4 "DigiKey" H 8650 3900 50  0001 C CNN "Supplier"
F 5 "GRM21BR61A226ME51L" H 8650 3900 50  0001 C CNN "Manufacturer PN"
F 6 "490-10511-6-ND" H 8650 3900 50  0001 C CNN "Supplier PN"
F 7 "Murata Electronics" H 8650 3900 50  0001 C CNN "Manufacturer"
F 8 "CL21A226MPQNNNE/0805X226M100NT" H 8650 3900 50  0001 C CNN "ZAlt Manufacturer PN"
	1    8650 3900
	-1   0    0    1   
$EndComp
$Comp
L Device:C C42
U 1 1 5D42DC2B
P 9300 3900
AR Path="/5D0328DE/5D4FC17D/5D42DC2B" Ref="C42"  Part="1" 
AR Path="/5D0328DE/5D4FE12B/5D42DC2B" Ref="C102"  Part="1" 
AR Path="/5D0328DE/5D4FEB2F/5D42DC2B" Ref="C103"  Part="1" 
F 0 "C103" H 9150 3900 50  0000 R CNN
F 1 "0.1uF, 10V" H 9250 4000 50  0000 R CNN
F 2 "LibreRouter_MegaBoard:C0402" H 9338 3750 50  0001 C CNN
F 3 "~" H 9300 3900 50  0001 C CNN
F 4 "Murata Electronics" H 9300 3900 50  0001 C CNN "Manufacturer"
F 5 "GCM155R71A104KA55D" H 9300 3900 50  0001 C CNN "Manufacturer PN"
F 6 "DigiKey" H 9300 3900 50  0001 C CNN "Supplier"
F 7 "490-16434-6-ND" H 9300 3900 50  0001 C CNN "Supplier PN"
F 8 "CL05B104KB54PNC/0402X104K500NT/CC0402KRX5R9BB104" H 9300 3900 50  0001 C CNN "ZAlt Manufacturer PN"
	1    9300 3900
	-1   0    0    1   
$EndComp
$Comp
L power:GND #PWR0151
U 1 1 5D42DD90
P 7350 4350
AR Path="/5D0328DE/5D4FC17D/5D42DD90" Ref="#PWR0151"  Part="1" 
AR Path="/5D0328DE/5D4FE12B/5D42DD90" Ref="#PWR0157"  Part="1" 
AR Path="/5D0328DE/5D4FEB2F/5D42DD90" Ref="#PWR0163"  Part="1" 
F 0 "#PWR0163" H 7350 4100 50  0001 C CNN
F 1 "GND" H 7355 4177 50  0000 C CNN
F 2 "" H 7350 4350 50  0001 C CNN
F 3 "" H 7350 4350 50  0001 C CNN
	1    7350 4350
	1    0    0    -1  
$EndComp
$Comp
L power:GND #PWR0152
U 1 1 5D42DDBC
P 9000 4350
AR Path="/5D0328DE/5D4FC17D/5D42DDBC" Ref="#PWR0152"  Part="1" 
AR Path="/5D0328DE/5D4FE12B/5D42DDBC" Ref="#PWR0158"  Part="1" 
AR Path="/5D0328DE/5D4FEB2F/5D42DDBC" Ref="#PWR0164"  Part="1" 
F 0 "#PWR0164" H 9000 4100 50  0001 C CNN
F 1 "GND" H 9005 4177 50  0000 C CNN
F 2 "" H 9000 4350 50  0001 C CNN
F 3 "" H 9000 4350 50  0001 C CNN
	1    9000 4350
	1    0    0    -1  
$EndComp
Connection ~ 8000 3450
Wire Wire Line
	8000 3450 8650 3450
Wire Wire Line
	8650 3750 8650 3450
Connection ~ 8650 3450
Wire Wire Line
	8650 3450 9300 3450
Wire Wire Line
	9300 3750 9300 3450
Connection ~ 9300 3450
Wire Wire Line
	8000 3450 8000 3750
Wire Wire Line
	8000 4050 8000 4250
Wire Wire Line
	8000 4250 8650 4250
Wire Wire Line
	9300 4050 9300 4250
Wire Wire Line
	8650 4050 8650 4250
Connection ~ 8650 4250
Wire Wire Line
	8650 4250 9000 4250
Wire Wire Line
	9000 4250 9000 4350
Connection ~ 9000 4250
Wire Wire Line
	9000 4250 9300 4250
Wire Wire Line
	7350 4350 7350 4250
Wire Wire Line
	5550 3850 5800 3850
Wire Wire Line
	5800 3850 5800 3900
Wire Wire Line
	5800 4200 5800 4300
$Comp
L power:GND #PWR0153
U 1 1 5ED0A795
P 5800 4700
AR Path="/5D0328DE/5D4FC17D/5ED0A795" Ref="#PWR0153"  Part="1" 
AR Path="/5D0328DE/5D4FE12B/5ED0A795" Ref="#PWR0159"  Part="1" 
AR Path="/5D0328DE/5D4FEB2F/5ED0A795" Ref="#PWR0165"  Part="1" 
F 0 "#PWR0165" H 5800 4450 50  0001 C CNN
F 1 "GND" H 5805 4527 50  0000 C CNN
F 2 "" H 5800 4700 50  0001 C CNN
F 3 "" H 5800 4700 50  0001 C CNN
	1    5800 4700
	1    0    0    -1  
$EndComp
Wire Wire Line
	5800 4600 5800 4700
$Comp
L Device:C C23
U 1 1 5ED0A796
P 2150 3550
AR Path="/5D0328DE/5D4FC17D/5ED0A796" Ref="C23"  Part="1" 
AR Path="/5D0328DE/5D4FE12B/5ED0A796" Ref="C44"  Part="1" 
AR Path="/5D0328DE/5D4FEB2F/5ED0A796" Ref="C65"  Part="1" 
F 0 "C65" H 2300 3550 50  0000 L CNN
F 1 "10uF, 35V" H 2200 3450 50  0000 L CNN
F 2 "LibreRouter_MegaBoard:C0805" H 2188 3400 50  0001 C CNN
F 3 "~" H 2150 3550 50  0001 C CNN
F 4 "DigiKey" H 2150 3550 50  0001 C CNN "Supplier"
F 5 "Murata Electronics" H 2150 3550 50  0001 C CNN "Manufacturer"
F 6 "GRM21BR6YA106ME43L" H 2150 3550 50  0001 C CNN "Manufacturer PN"
F 7 "490-10515-6-ND" H 2150 3550 50  0001 C CNN "Supplier PN"
	1    2150 3550
	1    0    0    -1  
$EndComp
Text HLabel 3850 3450 0    50   Input ~ 0
ENABLE
Text HLabel 1650 3350 0    50   BiDi ~ 0
VCC
Text HLabel 10100 3450 2    50   BiDi ~ 0
5V
Wire Wire Line
	4550 3350 2800 3350
Wire Wire Line
	2150 3400 2150 3350
Connection ~ 2150 3350
Wire Wire Line
	2150 3350 1650 3350
Wire Wire Line
	2800 3400 2800 3350
Connection ~ 2800 3350
Wire Wire Line
	2800 3350 2150 3350
Wire Wire Line
	2150 3700 2150 3850
Wire Wire Line
	2150 3850 2450 3850
Wire Wire Line
	2800 3850 2800 3700
$Comp
L power:GND #PWR0154
U 1 1 5ED0A797
P 2450 3850
AR Path="/5D0328DE/5D4FC17D/5ED0A797" Ref="#PWR0154"  Part="1" 
AR Path="/5D0328DE/5D4FE12B/5ED0A797" Ref="#PWR0160"  Part="1" 
AR Path="/5D0328DE/5D4FEB2F/5ED0A797" Ref="#PWR0166"  Part="1" 
F 0 "#PWR0166" H 2450 3600 50  0001 C CNN
F 1 "GND" H 2455 3677 50  0000 C CNN
F 2 "" H 2450 3850 50  0001 C CNN
F 3 "" H 2450 3850 50  0001 C CNN
	1    2450 3850
	1    0    0    -1  
$EndComp
Connection ~ 2450 3850
Wire Wire Line
	2450 3850 2800 3850
$Comp
L power:GND #PWR0155
U 1 1 5ED0A798
P 3850 4100
AR Path="/5D0328DE/5D4FC17D/5ED0A798" Ref="#PWR0155"  Part="1" 
AR Path="/5D0328DE/5D4FE12B/5ED0A798" Ref="#PWR0161"  Part="1" 
AR Path="/5D0328DE/5D4FEB2F/5ED0A798" Ref="#PWR0167"  Part="1" 
F 0 "#PWR0167" H 3850 3850 50  0001 C CNN
F 1 "GND" H 3855 3927 50  0000 C CNN
F 2 "" H 3850 4100 50  0001 C CNN
F 3 "" H 3850 4100 50  0001 C CNN
	1    3850 4100
	1    0    0    -1  
$EndComp
$Comp
L power:GND #PWR0156
U 1 1 5D4323EC
P 4350 4100
AR Path="/5D0328DE/5D4FC17D/5D4323EC" Ref="#PWR0156"  Part="1" 
AR Path="/5D0328DE/5D4FE12B/5D4323EC" Ref="#PWR0162"  Part="1" 
AR Path="/5D0328DE/5D4FEB2F/5D4323EC" Ref="#PWR0168"  Part="1" 
F 0 "#PWR0168" H 4350 3850 50  0001 C CNN
F 1 "GND" H 4355 3927 50  0000 C CNN
F 2 "" H 4350 4100 50  0001 C CNN
F 3 "" H 4350 4100 50  0001 C CNN
	1    4350 4100
	1    0    0    -1  
$EndComp
Wire Wire Line
	4550 3750 4350 3750
Wire Wire Line
	4350 3750 4350 3850
Wire Wire Line
	4550 3850 4350 3850
Connection ~ 4350 3850
Wire Wire Line
	4350 3850 4350 4100
Wire Wire Line
	4550 3550 3850 3550
Wire Wire Line
	3850 3550 3850 3600
Wire Wire Line
	3850 3900 3850 4100
Wire Wire Line
	3850 3450 4550 3450
Wire Wire Line
	9300 3450 10100 3450
$EndSCHEMATC
